  species    A      yield       mass(i)_lost    mass(i)_0        <X(i)>          X0(i)   log10(<X(i)>/X0(i)) 
      n      1   0.0000000E+00  0.0000000E+00  0.0000000E+00  0.0000000E+00  0.0000000E+00  0.0000000E+00
      p      1  -8.7192357E-03  2.7750349E-01  2.8622273E-01  6.4989108E-01  6.7046791E-01 -1.3537420E-02
      d      2  -4.0628685E-05  1.0379923E-07  4.0732484E-05  2.4308954E-07  9.5414587E-05 -2.5938485E+00
    he3      3   6.9716130E-05  3.2880323E-04  2.5908710E-04  7.7003101E-04  6.0690352E-04  1.0338856E-01
    he4      4   8.6424798E-03  1.3680191E-01  1.2815943E-01  3.2037920E-01  3.0020952E-01  2.8239829E-02
    li7      7  -7.1735045E-09  2.1365637E-11  7.1948700E-09  5.0036621E-11  1.6853761E-08 -2.5274088E+00
    be7      7   2.7573246E-19  2.7573246E-19  0.0000000E+00  6.4574351E-19  0.0000000E+00  0.0000000E+00
     b8      8   4.2366178E-28  4.2366178E-28  0.0000000E+00  9.9218220E-28  0.0000000E+00  0.0000000E+00
    c12     12  -3.1758309E-04  1.8231408E-03  2.1407239E-03  4.2696507E-03  5.0145797E-03 -6.9842204E-02
    c13     13   4.5462180E-05  7.1402930E-05  2.5940750E-05  1.6721999E-04  6.0765407E-05  4.3963176E-01
    c14     14   2.2130920E-19  2.2130920E-19  0.0000000E+00  5.1828852E-19  0.0000000E+00  0.0000000E+00
    n13     13   0.0000000E+00  0.0000000E+00  0.0000000E+00  0.0000000E+00  0.0000000E+00  0.0000000E+00
    n14     14   3.2817229E-04  9.6105773E-04  6.3288544E-04  2.2507207E-03  1.4825147E-03  1.8132263E-01
    n15     15  -3.9990744E-07  1.1150653E-06  1.5149727E-06  2.6113942E-06  3.5487767E-06 -1.3320626E-01
    o14     14   0.0000000E+00  0.0000000E+00  0.0000000E+00  0.0000000E+00  0.0000000E+00  0.0000000E+00
    o15     15   0.0000000E+00  0.0000000E+00  0.0000000E+00  0.0000000E+00  0.0000000E+00  0.0000000E+00
    o16     16  -7.0882961E-06  5.2324794E-03  5.2395677E-03  1.2254051E-02  1.2273526E-02 -6.8965770E-04
    o17     17   7.5564708E-07  2.8705940E-06  2.1149469E-06  6.7227029E-06  4.9541977E-06  1.3257058E-01
    o18     18  -8.3859049E-07  1.0978733E-05  1.1817324E-05  2.5711321E-05  2.7681719E-05 -3.2068688E-02
    o19     19   0.0000000E+00  0.0000000E+00  0.0000000E+00  0.0000000E+00  0.0000000E+00  0.0000000E+00
    f17     17   0.0000000E+00  0.0000000E+00  0.0000000E+00  0.0000000E+00  0.0000000E+00  0.0000000E+00
    f18     18   0.0000000E+00  0.0000000E+00  0.0000000E+00  0.0000000E+00  0.0000000E+00  0.0000000E+00
    f19     19  -2.3649704E-10  3.3470178E-07  3.3493828E-07  7.8384494E-07  7.8458260E-07 -4.0851734E-04
    f20     20   0.0000000E+00  0.0000000E+00  0.0000000E+00  0.0000000E+00  0.0000000E+00  0.0000000E+00
   ne19     19   0.0000000E+00  0.0000000E+00  0.0000000E+00  0.0000000E+00  0.0000000E+00  0.0000000E+00
   ne20     20  -4.4237822E-09  1.0603868E-03  1.0603912E-03  2.4833414E-03  2.4839337E-03 -1.0358211E-04
   ne21     21   6.7675501E-09  2.6756877E-06  2.6689202E-06  6.2662480E-06  6.2518634E-06  9.9810236E-04
   ne22     22  -3.7643622E-07  8.5389220E-05  8.5765656E-05  1.9997476E-04  2.0090342E-04 -2.0121369E-03
   ne23     23   0.0000000E+00  0.0000000E+00  0.0000000E+00  0.0000000E+00  0.0000000E+00  0.0000000E+00
   na21     21   0.0000000E+00  0.0000000E+00  0.0000000E+00  0.0000000E+00  0.0000000E+00  0.0000000E+00
   na22     22   5.3589840E-36  5.3589840E-36  0.0000000E+00  1.2550314E-35  0.0000000E+00  0.0000000E+00
   na23     23   3.9362749E-07  2.9097026E-05  2.8703398E-05  6.8142923E-05  6.7236826E-05  5.8135767E-03
   na24     24   0.0000000E+00  0.0000000E+00  0.0000000E+00  0.0000000E+00  0.0000000E+00  0.0000000E+00
   mg23     23   0.0000000E+00  0.0000000E+00  0.0000000E+00  0.0000000E+00  0.0000000E+00  0.0000000E+00
   mg24     24   1.1641532E-10  5.0581980E-04  5.0581968E-04  1.1845897E-03  1.1848669E-03 -1.0161431E-04
   mg25     25  -2.0379957E-08  6.6683402E-05  6.6703782E-05  1.5616723E-04  1.5625154E-04 -2.3440893E-04
   mg26     26   2.0845619E-08  7.6399170E-05  7.6378325E-05  1.7892077E-04  1.7891386E-04  1.6773783E-05
   mg27     27   0.0000000E+00  0.0000000E+00  0.0000000E+00  0.0000000E+00  0.0000000E+00  0.0000000E+00
   al25     25   0.0000000E+00  0.0000000E+00  0.0000000E+00  0.0000000E+00  0.0000000E+00  0.0000000E+00
   al-6     26   0.0000000E+00  0.0000000E+00  0.0000000E+00  0.0000000E+00  0.0000000E+00  0.0000000E+00
   al*6     26   0.0000000E+00  0.0000000E+00  0.0000000E+00  0.0000000E+00  0.0000000E+00  0.0000000E+00
   al27     27   4.3291948E-10  4.8705373E-05  4.8704940E-05  1.1406411E-04  1.1408982E-04 -9.7859986E-05
   al28     28   0.0000000E+00  0.0000000E+00  0.0000000E+00  0.0000000E+00  0.0000000E+00  0.0000000E+00
   si27     27   0.0000000E+00  0.0000000E+00  0.0000000E+00  0.0000000E+00  0.0000000E+00  0.0000000E+00
   si28     28  -4.6566129E-10  5.6006305E-04  5.6006352E-04  1.3116231E-03  1.3119316E-03 -1.0213216E-04
   si29     29   1.6370905E-11  2.9454259E-05  2.9454242E-05  6.8979534E-05  6.8995651E-05 -1.0145897E-04
   si30     30   1.2732926E-11  2.0086440E-05  2.0086427E-05  4.7040845E-05  4.7051835E-05 -1.0145897E-04
    p31     31  -4.5474735E-12  5.5920445E-06  5.5920491E-06  1.3096123E-05  1.3099202E-05 -1.0208037E-04
    p32     32   0.0000000E+00  0.0000000E+00  0.0000000E+00  0.0000000E+00  0.0000000E+00  0.0000000E+00
    p33     33   0.0000000E+00  0.0000000E+00  0.0000000E+00  0.0000000E+00  0.0000000E+00  0.0000000E+00
    s32     32   8.1490725E-10  2.6839061E-04  2.6838979E-04  6.2854943E-04  6.2869478E-04 -1.0042328E-04
    s33     33  -2.5011104E-12  2.2158486E-06  2.2158511E-06  5.1893412E-06  5.1905627E-06 -1.0220983E-04
    s34     34   3.1832315E-11  1.2886813E-05  1.2886781E-05  3.0179892E-05  3.0186888E-05 -1.0065631E-04
    s35     35   0.0000000E+00  0.0000000E+00  0.0000000E+00  0.0000000E+00  0.0000000E+00  0.0000000E+00
    s36     36  -2.4158453E-13  6.3612461E-08  6.3612703E-08  1.4897532E-07  1.4901079E-07 -1.0340087E-04
   cl35     35   4.3200998E-12  2.7531039E-06  2.7530996E-06  6.4475503E-06  6.4490509E-06 -1.0107058E-04
   cl36     36   0.0000000E+00  0.0000000E+00  0.0000000E+00  0.0000000E+00  0.0000000E+00  0.0000000E+00
   cl37     37   1.1368684E-12  9.3021941E-07  9.3021828E-07  2.1784999E-06  2.1790077E-06 -1.0120004E-04
   ar36     36   1.3824319E-10  5.1269551E-05  5.1269413E-05  1.2006921E-04  1.2009701E-04 -1.0055274E-04
   ar37     37   0.0000000E+00  0.0000000E+00  0.0000000E+00  0.0000000E+00  0.0000000E+00  0.0000000E+00
   ar38     38   1.9099389E-11  9.8394858E-06  9.8394667E-06  2.3043292E-05  2.3048646E-05 -1.0088934E-04
   ar39     39   8.0779225E-22  8.0779225E-22  0.0000000E+00  1.8917853E-21  0.0000000E+00  0.0000000E+00
   ar40     40   4.6361137E-11  1.6611738E-08  1.6565377E-08  3.8903369E-08  3.8803879E-08  1.1120858E-03
    k39     39  -3.1832315E-12  2.6692119E-06  2.6692151E-06  6.2510817E-06  6.2525537E-06 -1.0226162E-04
    k40     40  -4.3210158E-10  0.0000000E+00  4.3210158E-10  0.0000000E+00  1.0121847E-09  0.0000000E+00
    k41     41  -3.4106051E-13  2.0249199E-07  2.0249233E-07  4.7422014E-07  4.7433201E-07 -1.0244286E-04
   ca40     40   2.9467628E-10  4.6214587E-05  4.6214293E-05  1.0823089E-04  1.0825555E-04 -9.8973331E-05
   ca41     41   0.0000000E+00  0.0000000E+00  0.0000000E+00  0.0000000E+00  0.0000000E+00  0.0000000E+00
   ca42     42   8.2422957E-13  3.2385972E-07  3.2385890E-07  7.5845372E-07  7.5862943E-07 -1.0060453E-04
   ca43     43  -7.8159701E-14  6.9185042E-08  6.9185120E-08  1.6202587E-07  1.6206401E-07 -1.0223572E-04
   ca44     44  -7.9580786E-13  1.0938930E-06  1.0938938E-06  2.5618106E-06  2.5624124E-06 -1.0202859E-04
   ca45     45   2.4831945E-35  2.4831945E-35  0.0000000E+00  5.8154438E-35  0.0000000E+00  0.0000000E+00
   ca46     46   4.2188475E-15  2.1928719E-09  2.1928677E-09  5.1355316E-09  5.1367248E-09 -1.0088934E-04
   ca47     47   0.0000000E+00  0.0000000E+00  0.0000000E+00  0.0000000E+00  0.0000000E+00  0.0000000E+00
   ca48     48  -8.5265128E-14  1.0697715E-07  1.0697724E-07  2.5053200E-07  2.5059089E-07 -1.0208037E-04
   sc45     45  -4.2632564E-14  3.0862029E-08  3.0862072E-08  7.2276421E-08  7.2293453E-08 -1.0233929E-04
   sc46     46   0.0000000E+00  0.0000000E+00  0.0000000E+00  0.0000000E+00  0.0000000E+00  0.0000000E+00
   sc47     47   0.0000000E+00  0.0000000E+00  0.0000000E+00  0.0000000E+00  0.0000000E+00  0.0000000E+00
   sc48     48   8.1250170E-35  1.9464709E-29  1.9464628E-29  4.5584800E-29  4.5595290E-29  0.0000000E+00
   ti46     46  -2.2737368E-13  1.8854631E-07  1.8854654E-07  4.4156045E-07  4.4166444E-07 -1.0226162E-04
   ti47     47   1.4210855E-14  1.7373162E-07  1.7373161E-07  4.0686564E-07  4.0696094E-07 -1.0171789E-04
   ti48     48   2.6147973E-12  1.7580629E-06  1.7580603E-06  4.1172434E-06  4.1182020E-06 -1.0109648E-04
   ti49     49  -2.4158453E-13  1.3170417E-07  1.3170441E-07  3.0844069E-07  3.0851351E-07 -1.0252054E-04
   ti50     50  -3.9790393E-13  1.2867807E-07  1.2867847E-07  3.0135379E-07  3.0142536E-07 -1.0311606E-04
    v51     51   5.6843419E-13  2.8358153E-07  2.8358096E-07  6.6412537E-07  6.6427958E-07 -1.0083755E-04
   cr52     52   2.9103830E-11  1.1625217E-05  1.1625188E-05  2.7225333E-05  2.7231643E-05 -1.0065631E-04
   cr53     53   2.3874236E-12  1.3435490E-06  1.3435466E-06  3.1464849E-06  3.1472164E-06 -1.0094112E-04
   cr54     54   5.9685590E-13  3.4074833E-07  3.4074773E-07  7.9800549E-07  7.9819102E-07 -1.0096702E-04
   mn55     55  -1.0004442E-11  1.0152332E-05  1.0152342E-05  2.3775954E-05  2.3781547E-05 -1.0215805E-04
   fe54     54   6.5483619E-11  6.6894674E-05  6.6894609E-05  1.5666200E-04  1.5669856E-04 -1.0132950E-04
   fe55     55   1.2773443E-23  1.2773443E-23  0.0000000E+00  2.9914388E-23  0.0000000E+00  0.0000000E+00
   fe56     56   3.0267984E-09  1.0889823E-03  1.0889793E-03  2.5503100E-03  2.5509002E-03 -1.0050096E-04
   fe57     57  -3.0922820E-11  2.5599431E-05  2.5599462E-05  5.9951832E-05  5.9965951E-05 -1.0226162E-04
   fe58     58   3.8653525E-12  3.4663751E-06  3.4663713E-06  8.1179751E-06  8.1198668E-06 -1.0120004E-04
   fe59     59   0.0000000E+00  0.0000000E+00  0.0000000E+00  0.0000000E+00  0.0000000E+00  0.0000000E+00
   fe60     60   0.0000000E+00  0.0000000E+00  0.0000000E+00  0.0000000E+00  0.0000000E+00  0.0000000E+00
   co59     59   4.5474735E-12  2.6734660E-06  2.6734615E-06  6.2610447E-06  6.2625008E-06 -1.0099290E-04
   co60     60   5.6339159E-31  5.6339159E-31  0.0000000E+00  1.3194183E-30  0.0000000E+00  0.0000000E+00
   ni58     58  -6.1845640E-11  3.8251426E-05  3.8251488E-05  8.9581801E-05  8.9602931E-05 -1.0241697E-04
   ni59     59   0.0000000E+00  0.0000000E+00  0.0000000E+00  0.0000000E+00  0.0000000E+00  0.0000000E+00
   ni60     60  -1.2732926E-11  1.5241989E-05  1.5242002E-05  3.5695524E-05  3.5703917E-05 -1.0210626E-04
   ni61     61   5.6843419E-14  6.7360133E-07  6.7360128E-07  1.5775207E-06  1.5778902E-06 -1.0171789E-04
   ni62     62  -2.5011104E-12  2.1829439E-06  2.1829464E-06  5.1122811E-06  5.1134848E-06 -1.0223572E-04
   ni63     63   0.0000000E+00  0.0000000E+00  0.0000000E+00  0.0000000E+00  0.0000000E+00  0.0000000E+00
   ni64     64  -3.4106051E-13  5.7385313E-07  5.7385347E-07  1.3439184E-06  1.3442341E-06 -1.0200269E-04
   cu63     63  -4.5474735E-13  4.7364986E-07  4.7365032E-07  1.1092503E-06  1.1095112E-06 -1.0213216E-04
   cu64     64   0.0000000E+00  0.0000000E+00  0.0000000E+00  0.0000000E+00  0.0000000E+00  0.0000000E+00
   cu65     65  -8.5265128E-14  2.1781949E-07  2.1781958E-07  5.1011591E-07  5.1023562E-07 -1.0189912E-04
   zn64     64   1.5916157E-12  8.1150029E-07  8.1149869E-07  1.9004691E-06  1.9009107E-06 -1.0088934E-04
   zn65     65   1.5996334E-30  1.5996334E-30  0.0000000E+00  3.7462144E-30  0.0000000E+00  0.0000000E+00
   zn66     66   1.1368684E-13  4.8013408E-07  4.8013396E-07  1.1244358E-06  1.1246990E-06 -1.0164021E-04
   zn67     67   1.4210855E-13  7.1624520E-08  7.1624378E-08  1.6773893E-07  1.6777788E-07 -1.0083755E-04
   zn68     68  -2.5579538E-13  3.3244189E-07  3.3244214E-07  7.7855248E-07  7.7873545E-07 -1.0205448E-04
   zn69     69   0.0000000E+00  0.0000000E+00  0.0000000E+00  0.0000000E+00  0.0000000E+00  0.0000000E+00
   zn70     70  -1.7763568E-15  1.1316220E-08  1.1316222E-08  2.6501686E-08  2.6507900E-08 -1.0182145E-04
   ga69     69   4.6185278E-14  3.0478922E-08  3.0478876E-08  7.1379212E-08  7.1395824E-08 -1.0107058E-04
   ga70     70   0.0000000E+00  0.0000000E+00  0.0000000E+00  0.0000000E+00  0.0000000E+00  0.0000000E+00
   ga71     71   1.4210855E-14  2.0813799E-08  2.0813784E-08  4.8744262E-08  4.8755648E-08 -1.0143307E-04
   ge70     70  -1.1368684E-13  3.3898910E-08  3.3899024E-08  7.9388549E-08  7.9407421E-08 -1.0321962E-04
   ge71     71   0.0000000E+00  0.0000000E+00  0.0000000E+00  0.0000000E+00  0.0000000E+00  0.0000000E+00
   ge72     72   9.5923269E-14  4.6079052E-08  4.6078956E-08  1.0791347E-07  1.0793853E-07 -1.0083755E-04
   ge73     73  -3.5527137E-15  1.3113171E-08  1.3113175E-08  3.0710002E-08  3.0717207E-08 -1.0187323E-04
   ge74     74  -2.8421709E-14  6.2387556E-08  6.2387585E-08  1.4610670E-07  1.4614099E-07 -1.0192502E-04
   as75     75   6.2172489E-15  9.1467447E-09  9.1467385E-09  2.1420949E-08  2.1425953E-08 -1.0143307E-04
   se76     76  -8.8817842E-16  9.5225863E-09  9.5225872E-09  2.2301139E-08  2.2306367E-08 -1.0179556E-04
   se77     77  -9.7699626E-15  7.8564533E-09  7.8564630E-09  1.8399188E-08  1.8403522E-08 -1.0228751E-04
   se78     78  -1.7763568E-15  2.4793158E-08  2.4793160E-08  5.8063602E-08  5.8077209E-08 -1.0176967E-04
   se79     79   0.0000000E+00  0.0000000E+00  0.0000000E+00  0.0000000E+00  0.0000000E+00  0.0000000E+00
   se80     80   1.0302870E-13  5.3071780E-08  5.3071677E-08  1.2428988E-07  1.2431876E-07 -1.0088934E-04
   br79     79   1.6875390E-14  8.4871266E-09  8.4871097E-09  1.9876175E-08  1.9880794E-08 -1.0091523E-04
   br80     80   0.0000000E+00  0.0000000E+00  0.0000000E+00  0.0000000E+00  0.0000000E+00  0.0000000E+00
   br81     81   1.6875390E-14  8.4649603E-09  8.4649434E-09  1.9824263E-08  1.9828869E-08 -1.0088934E-04
   kr80     80   4.4408921E-16  2.0225956E-09  2.0225952E-09  4.7367581E-09  4.7378670E-09 -1.0166610E-04
   kr81     81   0.0000000E+00  0.0000000E+00  0.0000000E+00  0.0000000E+00  0.0000000E+00  0.0000000E+00
   kr82     82   0.0000000E+00  1.0388218E-08  1.0388218E-08  2.4328381E-08  2.4334081E-08 -1.0174378E-04
   kr83     83   2.7533531E-14  1.0416360E-08  1.0416333E-08  2.4394287E-08  2.4399938E-08 -1.0057864E-04
   kr84     84  -3.9079850E-14  5.1953744E-08  5.1953783E-08  1.2167153E-07  1.2170013E-07 -1.0205448E-04
   kr-5     85   1.0043804E-25  1.0043804E-25  0.0000000E+00  2.3521791E-25  0.0000000E+00  0.0000000E+00
   kr*5     85   0.0000000E+00  0.0000000E+00  0.0000000E+00  0.0000000E+00  0.0000000E+00  0.0000000E+00
   kr86     86   5.1514348E-14  1.6085504E-08  1.6085453E-08  3.7670972E-08  3.7679676E-08 -1.0034561E-04
   rb85     85  -8.8817842E-15  8.4319627E-09  8.4319716E-09  1.9746986E-08  1.9751633E-08 -1.0218394E-04
   rb86     86   0.0000000E+00  0.0000000E+00  0.0000000E+00  0.0000000E+00  0.0000000E+00  0.0000000E+00
   rb87     87  -7.1671491E-10  2.8351506E-09  3.5518655E-09  6.6396972E-09  8.3201348E-09 -9.7982109E-02
   sr86     86   1.0214052E-14  3.9347614E-09  3.9347512E-09  9.2148982E-09  9.2170325E-09 -1.0057864E-04
   sr87     87   7.1670470E-10  3.4985232E-09  2.7818186E-09  8.1932630E-09  6.5163239E-09  9.9454239E-02
   sr88     88   2.8421709E-14  3.3735247E-08  3.3735219E-08  7.9005268E-08  7.9023707E-08 -1.0135539E-04
   sr89     89   0.0000000E+00  0.0000000E+00  0.0000000E+00  0.0000000E+00  0.0000000E+00  0.0000000E+00
   sr90     90   2.1228647E-35  2.1228647E-35  0.0000000E+00  4.9715806E-35  0.0000000E+00  0.0000000E+00
    y89     89  -2.5757174E-14  8.0462810E-09  8.0463067E-09  1.8843750E-08  1.8848224E-08 -1.0311606E-04
    y90     90   0.0000000E+00  0.0000000E+00  0.0000000E+00  0.0000000E+00  0.0000000E+00  0.0000000E+00
    y91     91   0.0000000E+00  0.0000000E+00  0.0000000E+00  0.0000000E+00  0.0000000E+00  0.0000000E+00
   zr90     90   1.6875390E-14  9.5904431E-09  9.5904262E-09  2.2460055E-08  2.2465278E-08 -1.0096702E-04
   zr91     91  -2.8865799E-15  2.1146820E-09  2.1146849E-09  4.9524171E-09  4.9535838E-09 -1.0228751E-04
   zr92     92   4.6629367E-15  3.2678273E-09  3.2678227E-09  7.6529920E-09  7.6547746E-09 -1.0114826E-04
   zr93     93   0.0000000E+00  0.0000000E+00  0.0000000E+00  0.0000000E+00  0.0000000E+00  0.0000000E+00
   zr94     94  -2.2204460E-15  3.3836347E-09  3.3836369E-09  7.9242035E-09  7.9260651E-09 -1.0202859E-04
   zr95     95   0.0000000E+00  0.0000000E+00  0.0000000E+00  0.0000000E+00  0.0000000E+00  0.0000000E+00
   zr96     96   1.2212453E-15  5.5672578E-10  5.5672456E-10  1.3038075E-09  1.3041102E-09 -1.0081166E-04
   nb93     93  -3.3306691E-16  1.4611287E-09  1.4611290E-09  3.4218470E-09  3.4226495E-09 -1.0184734E-04
   nb94     94   4.4472479E-22  4.4472479E-22  0.0000000E+00  1.0415101E-21  0.0000000E+00  0.0000000E+00
   nb95     95   0.0000000E+00  0.0000000E+00  0.0000000E+00  0.0000000E+00  0.0000000E+00  0.0000000E+00
   mo94     94   9.7144515E-16  4.5794707E-10  4.5794610E-10  1.0724756E-09  1.0727247E-09 -1.0086344E-04
   mo95     95   1.9984014E-15  8.0100493E-10  8.0100293E-10  1.8758899E-09  1.8763244E-09 -1.0057864E-04
   mo96     96  -2.2204460E-16  8.5204471E-10  8.5204493E-10  1.9954209E-09  1.9958890E-09 -1.0187323E-04
   mo97     97   3.8857806E-16  4.9568438E-10  4.9568399E-10  1.1608534E-09  1.1611244E-09 -1.0138129E-04
   mo98     98  -3.3306691E-16  1.2724990E-09  1.2724993E-09  2.9800915E-09  2.9807905E-09 -1.0184734E-04
   tc99     99   0.0000000E+00  0.0000000E+00  0.0000000E+00  0.0000000E+00  0.0000000E+00  0.0000000E+00
   ru99     99   7.2164497E-16  4.4432688E-10  4.4432616E-10  1.0405782E-09  1.0408203E-09 -1.0104469E-04
  ru100    100   6.6613381E-16  4.4317597E-10  4.4317530E-10  1.0378829E-09  1.0381246E-09 -1.0112236E-04
  ru101    101   8.3266727E-16  6.0604366E-10  6.0604283E-10  1.4193060E-09  1.4196366E-09 -1.0114826E-04
  ru102    102   3.2196468E-15  1.1318868E-09  1.1318836E-09  2.6507889E-09  2.6514024E-09 -1.0050096E-04
  rh103    103   1.2212453E-15  7.2285633E-10  7.2285511E-10  1.6928721E-09  1.6932657E-09 -1.0099290E-04
  pd104    104  -8.3266727E-17  3.1631825E-10  3.1631833E-10  7.4079215E-10  7.4096596E-10 -1.0187323E-04
  pd105    105   1.1657342E-15  6.4013828E-10  6.4013711E-10  1.4991529E-09  1.4995014E-09 -1.0094112E-04
  pd106    106   5.5511151E-17  7.9095824E-10  7.9095819E-10  1.8523613E-09  1.8527950E-09 -1.0169199E-04
  pd107    107   0.0000000E+00  0.0000000E+00  0.0000000E+00  0.0000000E+00  0.0000000E+00  0.0000000E+00
  pd108    108   7.7715612E-16  7.8023032E-10  7.8022955E-10  1.8272374E-09  1.8276636E-09 -1.0127771E-04
  ag107    107   8.8817842E-16  5.3732424E-10  5.3732335E-10  1.2583706E-09  1.2586634E-09 -1.0101880E-04
  ag108    108   0.0000000E+00  0.0000000E+00  0.0000000E+00  0.0000000E+00  0.0000000E+00  0.0000000E+00
  ag109    109  -2.2204460E-16  5.0853166E-10  5.0853188E-10  1.1909407E-09  1.1912203E-09 -1.0197680E-04
  cd108    108  -2.0816682E-17  3.0131390E-11  3.0131411E-11  7.0565317E-11  7.0581894E-11 -1.0200269E-04
  cd109    109   3.1126594E-31  3.1126594E-31  0.0000000E+00  7.2896006E-31  0.0000000E+00  0.0000000E+00
  cd110    110  -7.7715612E-16  4.3068843E-10  4.3068921E-10  1.0086381E-09  1.0088761E-09 -1.0246875E-04
  cd111    111   7.7715612E-16  4.4539314E-10  4.4539236E-10  1.0430753E-09  1.0433179E-09 -1.0099290E-04
  cd112    112   1.8318680E-15  8.4721430E-10  8.4721247E-10  1.9841084E-09  1.9845690E-09 -1.0078577E-04
  cd113    113   7.2164497E-16  4.3287296E-10  4.3287224E-10  1.0137541E-09  1.0139899E-09 -1.0101880E-04
  cd114    114   2.5535130E-15  1.0267083E-09  1.0267057E-09  2.4044691E-09  2.4050264E-09 -1.0065631E-04
  in115    115   7.7715612E-16  3.8713752E-10  3.8713674E-10  9.0664526E-10  9.0685587E-10 -1.0086344E-04
  sn116    116  -1.6653345E-15  1.2112212E-09  1.2112229E-09  2.8365839E-09  2.8372522E-09 -1.0231340E-04
  sn117    117  -7.2164497E-16  6.4526917E-10  6.4526989E-10  1.5111691E-09  1.5115248E-09 -1.0220983E-04
  sn118    118  -8.8817842E-16  1.9676787E-09  1.9676796E-09  4.6081468E-09  4.6092290E-09 -1.0197680E-04
  sn119    119  -6.6613381E-16  7.3407946E-10  7.3408013E-10  1.7191557E-09  1.7195600E-09 -1.0213216E-04
  sn120    120  -3.1086245E-15  2.8076113E-09  2.8076144E-09  6.5752022E-09  6.5767498E-09 -1.0220983E-04
  sb121    121   8.6042284E-16  4.3297996E-10  4.3297910E-10  1.0140047E-09  1.0142401E-09 -1.0083755E-04
  te122    122  -5.8286709E-16  2.8781158E-10  2.8781216E-10  6.7403183E-10  6.7419115E-10 -1.0265000E-04
  te123    123  -2.8449465E-16  1.0127565E-10  1.0127594E-10  2.3717953E-10  2.3723576E-10 -1.0296070E-04
  te124    124   1.2767565E-15  5.4376470E-10  5.4376342E-10  1.2734537E-09  1.2737490E-09 -1.0070809E-04
  te125    125   1.3877788E-15  8.1760521E-10  8.1760382E-10  1.9147663E-09  1.9152118E-09 -1.0101880E-04
  te126    126  -2.4424907E-15  2.1961375E-09  2.1961399E-09  5.1431792E-09  5.1443902E-09 -1.0223572E-04
   i127    127  -3.3306691E-15  2.7543177E-09  2.7543210E-09  6.4503927E-09  6.4519119E-09 -1.0228751E-04
   i128    128   0.0000000E+00  0.0000000E+00  0.0000000E+00  0.0000000E+00  0.0000000E+00  0.0000000E+00
   i129    129   1.6600904E-32  1.6600904E-32  0.0000000E+00  3.8877997E-32  0.0000000E+00  0.0000000E+00
  xe128    128   5.5511151E-16  2.9748354E-10  2.9748298E-10  6.9668277E-10  6.9684469E-10 -1.0094112E-04
  xe129    129  -6.6613381E-15  3.7345900E-09  3.7345966E-09  8.7461123E-09  8.7481773E-09 -1.0252054E-04
  xe130    130  -6.6613381E-16  6.0428385E-10  6.0428451E-10  1.4151847E-09  1.4155179E-09 -1.0223572E-04
  xe131    131   3.7747583E-15  3.0185334E-09  3.0185296E-09  7.0691653E-09  7.0708124E-09 -1.0117416E-04
  xe132    132   7.7715612E-15  3.7175847E-09  3.7175769E-09  8.7062872E-09  8.7083096E-09 -1.0086344E-04
  xe133    133   0.0000000E+00  0.0000000E+00  0.0000000E+00  0.0000000E+00  0.0000000E+00  0.0000000E+00
  xe134    134   4.3298698E-15  1.3934510E-09  1.3934467E-09  3.2633514E-09  3.2641059E-09 -1.0039739E-04
  cs133    133   2.6645353E-15  9.7737463E-10  9.7737196E-10  2.2889337E-09  2.2894637E-09 -1.0055274E-04
  cs134    134   4.8252499E-28  4.8252499E-28  0.0000000E+00  1.1300352E-27  0.0000000E+00  0.0000000E+00
  cs135    135   0.0000000E+00  0.0000000E+00  0.0000000E+00  0.0000000E+00  0.0000000E+00  0.0000000E+00
  cs136    136   0.0000000E+00  0.0000000E+00  0.0000000E+00  0.0000000E+00  0.0000000E+00  0.0000000E+00
  cs137    137   0.0000000E+00  0.0000000E+00  0.0000000E+00  0.0000000E+00  0.0000000E+00  0.0000000E+00
  ba134    134  -1.9428903E-16  2.9963493E-10  2.9963512E-10  7.0172118E-10  7.0188605E-10 -1.0202859E-04
  ba135    135   1.4988011E-15  8.2332330E-10  8.2332180E-10  1.9281576E-09  1.9286059E-09 -1.0096702E-04
  ba136    136  -2.5535130E-15  9.8820230E-10  9.8820485E-10  2.3142912E-09  2.3148394E-09 -1.0285714E-04
  ba137    137  -1.9984014E-15  1.4235879E-09  1.4235899E-09  3.3339296E-09  3.3347154E-09 -1.0236519E-04
  ba138    138   2.2204460E-14  9.1537062E-09  9.1536840E-09  2.1437252E-08  2.1442224E-08 -1.0070809E-04
  la139    139   3.6637360E-15  1.2555457E-09  1.2555420E-09  2.9403882E-09  2.9410685E-09 -1.0047507E-04
  ce140    140  -4.2188475E-15  2.8776450E-09  2.8776492E-09  6.7392159E-09  6.7408044E-09 -1.0236519E-04
  ce141    141   0.0000000E+00  0.0000000E+00  0.0000000E+00  0.0000000E+00  0.0000000E+00  0.0000000E+00
  ce142    142   8.0491169E-16  3.6674586E-10  3.6674505E-10  8.5888963E-10  8.5908897E-10 -1.0078577E-04
  pr141    141  -1.6653345E-16  4.9593812E-10  4.9593829E-10  1.1614476E-09  1.1617202E-09 -1.0189912E-04
  nd142    142  -1.1102230E-16  6.6158107E-10  6.6158118E-10  1.5493702E-09  1.5497336E-09 -1.0184734E-04
  nd143    143   3.8857806E-16  2.9617978E-10  2.9617939E-10  6.9362949E-10  6.9379108E-10 -1.0117416E-04
  nd144    144  -5.5511151E-16  5.8863875E-10  5.8863930E-10  1.3785452E-09  1.3788695E-09 -1.0215805E-04
  nd145    145  -2.6367797E-16  2.1889028E-10  2.1889054E-10  5.1262361E-10  5.1274435E-10 -1.0228751E-04
  nd146    146   8.8817842E-16  4.3084050E-10  4.3083961E-10  1.0089942E-09  1.0092285E-09 -1.0081166E-04
  nd147    147   0.0000000E+00  0.0000000E+00  0.0000000E+00  0.0000000E+00  0.0000000E+00  0.0000000E+00
  nd148    148  -1.5265567E-16  1.4573420E-10  1.4573436E-10  3.4129791E-10  3.4137826E-10 -1.0223572E-04
  pm147    147   1.7168925E-28  1.7168925E-28  0.0000000E+00  4.0208258E-28  0.0000000E+00  0.0000000E+00
  pm148    148   0.0000000E+00  0.0000000E+00  0.0000000E+00  0.0000000E+00  0.0000000E+00  0.0000000E+00
  sm147    147   8.3266727E-17  1.1730698E-10  1.1730690E-10  2.7472363E-10  2.7478778E-10 -1.0138129E-04
  sm148    148  -4.8572257E-17  8.8559653E-11  8.8559701E-11  2.0739967E-10  2.0744838E-10 -1.0197680E-04
  sm149    149  -1.7347235E-16  1.0962220E-10  1.0962237E-10  2.5672647E-10  2.5678701E-10 -1.0239108E-04
  sm150    150   1.3877788E-16  5.8932977E-11  5.8932838E-11  1.3801635E-10  1.3804835E-10 -1.0068221E-04
  sm151    151   3.3773924E-26  3.3773924E-26  0.0000000E+00  7.9095841E-26  0.0000000E+00  0.0000000E+00
  sm152    152   1.3877788E-17  2.1645787E-10  2.1645785E-10  5.0692711E-10  5.0704585E-10 -1.0171789E-04
  eu151    151   2.0816682E-16  1.4279271E-10  1.4279250E-10  3.3440917E-10  3.3448702E-10 -1.0109648E-04
  eu152    152   1.0179592E-25  1.0179592E-25  0.0000000E+00  2.3839793E-25  0.0000000E+00  0.0000000E+00
  eu153    153  -1.3877788E-16  1.5793894E-10  1.5793908E-10  3.6988043E-10  3.6996742E-10 -1.0213216E-04
  eu154    154   4.1610847E-26  4.1610847E-26  0.0000000E+00  9.7449294E-26  0.0000000E+00  0.0000000E+00
  eu155    155   7.8182996E-33  7.8182996E-33  0.0000000E+00  1.8309836E-32  0.0000000E+00  0.0000000E+00
  gd152    152   2.2117724E-17  2.0849264E-12  2.0849043E-12  4.8827318E-12  4.8838242E-12 -9.7160912E-05
  gd153    153   2.1616563E-34  2.1616563E-34  0.0000000E+00  5.0624271E-34  0.0000000E+00  0.0000000E+00
  gd154    154   1.1449175E-16  2.3024119E-11  2.3024005E-11  5.3920656E-11  5.3933018E-11 -9.9542958E-05
  gd155    155  -1.3877788E-16  1.5732839E-10  1.5732853E-10  3.6845058E-10  3.6853717E-10 -1.0205448E-04
  gd156    156  -1.3877788E-16  2.1900176E-10  2.1900190E-10  5.1288468E-10  5.1300519E-10 -1.0202859E-04
  gd157    157   2.4980018E-16  1.6850719E-10  1.6850694E-10  3.9463044E-10  3.9472228E-10 -1.0107058E-04
  gd158    158   4.4408921E-16  2.6916616E-10  2.6916572E-10  6.3036576E-10  6.3051242E-10 -1.0101880E-04
  gd159    159   0.0000000E+00  0.0000000E+00  0.0000000E+00  0.0000000E+00  0.0000000E+00  0.0000000E+00
  gd160    160   4.7184479E-16  2.3987393E-10  2.3987345E-10  5.6176563E-10  5.6189614E-10 -1.0088934E-04
  tb159    159   2.6367797E-16  2.0305375E-10  2.0305349E-10  4.7553572E-10  4.7564652E-10 -1.0117416E-04
  tb160    160   0.0000000E+00  0.0000000E+00  0.0000000E+00  0.0000000E+00  0.0000000E+00  0.0000000E+00
  tb161    161   0.0000000E+00  0.0000000E+00  0.0000000E+00  0.0000000E+00  0.0000000E+00  0.0000000E+00
  dy160    160   1.0755286E-16  3.0725561E-11  3.0725453E-11  7.1956822E-11  7.1973427E-11 -1.0021614E-04
  dy161    161   4.4408921E-16  2.5075453E-10  2.5075408E-10  5.8724714E-10  5.8738370E-10 -1.0096702E-04
  dy162    162   2.7755576E-17  3.4027947E-10  3.4027944E-10  7.9690743E-10  7.9709406E-10 -1.0169199E-04
  dy163    163  -4.7184479E-16  3.3460143E-10  3.3460190E-10  7.8360995E-10  7.8379458E-10 -1.0231340E-04
  dy164    164   6.9388939E-16  3.8214562E-10  3.8214493E-10  8.9495467E-10  8.9516272E-10 -1.0094112E-04
  ho165    165  -4.1633363E-16  2.9764091E-10  2.9764133E-10  6.9705136E-10  6.9721562E-10 -1.0233929E-04
  er166    166   2.2204460E-16  2.8275207E-10  2.8275185E-10  6.6218286E-10  6.6233746E-10 -1.0138129E-04
  er167    167   3.1918912E-16  1.9416492E-10  1.9416460E-10  4.5471879E-10  4.5482462E-10 -1.0107058E-04
  er168    168   1.8041124E-16  2.3042263E-10  2.3042245E-10  5.3963145E-10  5.3975746E-10 -1.0140717E-04
  er169    169   0.0000000E+00  0.0000000E+00  0.0000000E+00  0.0000000E+00  0.0000000E+00  0.0000000E+00
  er170    170  -4.5796700E-16  1.2886300E-10  1.2886346E-10  3.0178690E-10  3.0185868E-10 -1.0327141E-04
  tm169    169   2.9143354E-16  1.3617729E-10  1.3617700E-10  3.1891639E-10  3.1899042E-10 -1.0078577E-04
  tm170    170   0.0000000E+00  0.0000000E+00  0.0000000E+00  0.0000000E+00  0.0000000E+00  0.0000000E+00
  tm171    171   4.7649860E-29  4.7649860E-29  0.0000000E+00  1.1159218E-28  0.0000000E+00  0.0000000E+00
  yb170    170   4.3368087E-17  2.5756029E-11  2.5755986E-11  6.0318570E-11  6.0332607E-11 -1.0104469E-04
  yb171    171   2.0816682E-16  1.2249192E-10  1.2249171E-10  2.8686634E-10  2.8693303E-10 -1.0096702E-04
  yb172    172  -6.9388939E-17  1.8966889E-10  1.8966896E-10  4.4418946E-10  4.4429369E-10 -1.0189912E-04
  yb173    173   4.7184479E-16  1.4160297E-10  1.4160249E-10  3.3162287E-10  3.3169947E-10 -1.0031971E-04
  yb174    174   6.3837824E-16  2.8334857E-10  2.8334793E-10  6.6357980E-10  6.6373379E-10 -1.0075988E-04
  lu175    175   2.2204460E-16  1.2788412E-10  1.2788390E-10  2.9949443E-10  2.9956407E-10 -1.0096702E-04
  lu176    176  -9.6165632E-13  2.7712210E-12  3.7328773E-12  6.4899791E-12  8.7441495E-12 -1.2947427E-01
  lu177    177   0.0000000E+00  0.0000000E+00  0.0000000E+00  0.0000000E+00  0.0000000E+00  0.0000000E+00
  hf176    176   9.6169427E-13  2.9684581E-11  2.8722887E-11  6.9518925E-11  6.7282471E-11  1.4201094E-02
  hf177    177   2.4980018E-16  1.0323613E-10  1.0323588E-10  2.4177080E-10  2.4182686E-10 -1.0070809E-04
  hf178    178  -3.7470027E-16  1.5231788E-10  1.5231826E-10  3.5671635E-10  3.5680081E-10 -1.0280534E-04
  hf179    179   1.3183898E-16  7.6476235E-11  7.6476103E-11  1.7910126E-10  1.7914291E-10 -1.0096702E-04
  hf180    180   6.8001160E-16  1.9805316E-10  1.9805248E-10  4.6382473E-10  4.6393178E-10 -1.0021614E-04
  hf181    181   0.0000000E+00  0.0000000E+00  0.0000000E+00  0.0000000E+00  0.0000000E+00  0.0000000E+00
  hf182    182   7.1052550E-33  7.1052550E-33  0.0000000E+00  1.6639942E-32  0.0000000E+00  0.0000000E+00
  ta181    181  -1.0408341E-16  8.3910656E-11  8.3910760E-11  1.9651208E-10  1.9655837E-10 -1.0226162E-04
  ta182    182   0.0000000E+00  0.0000000E+00  0.0000000E+00  0.0000000E+00  0.0000000E+00  0.0000000E+00
  ta183    183   0.0000000E+00  0.0000000E+00  0.0000000E+00  0.0000000E+00  0.0000000E+00  0.0000000E+00
   w182    182  -6.9388939E-17  1.3168519E-10  1.3168526E-10  3.0839625E-10  3.0846867E-10 -1.0197680E-04
   w183    183   6.9388939E-17  7.1498633E-11  7.1498564E-11  1.6744411E-10  1.6748318E-10 -1.0130361E-04
   w184    184   5.8286709E-16  1.5392380E-10  1.5392322E-10  3.6047731E-10  3.6056041E-10 -1.0011258E-04
   w185    185   0.0000000E+00  0.0000000E+00  0.0000000E+00  0.0000000E+00  0.0000000E+00  0.0000000E+00
   w186    186  -2.4980018E-16  1.4437647E-10  1.4437672E-10  3.3811820E-10  3.3819803E-10 -1.0252054E-04
  re185    185   1.3877788E-16  7.3381815E-11  7.3381676E-11  1.7185438E-10  1.7189432E-10 -1.0091523E-04
  re186    186   0.0000000E+00  0.0000000E+00  0.0000000E+00  0.0000000E+00  0.0000000E+00  0.0000000E+00
  re187    187  -3.1855324E-11  1.0196179E-10  1.3381711E-10  2.3878638E-10  3.1346245E-10 -1.1817596E-01
  os186    186   1.2490009E-16  4.0672726E-11  4.0672601E-11  9.5252285E-11  9.5274309E-11 -1.0039739E-04
  os187    187   3.1855529E-11  6.4378745E-11  3.2523217E-11  1.5076990E-10  7.6184628E-11  2.9644728E-01
  os188    188  -3.6082248E-16  3.4310585E-10  3.4310621E-10  8.0352658E-10  8.0371565E-10 -1.0218394E-04
  os189    189   5.8286709E-16  4.2055331E-10  4.2055273E-10  9.8490238E-10  9.8513175E-10 -1.0112236E-04
  os190    190   1.1657342E-15  6.8752348E-10  6.8752232E-10  1.6101253E-09  1.6104998E-09 -1.0101880E-04
  os191    191   0.0000000E+00  0.0000000E+00  0.0000000E+00  0.0000000E+00  0.0000000E+00  0.0000000E+00
  os192    192   2.8865799E-15  1.0790028E-09  1.0789999E-09  2.5269387E-09  2.5275240E-09 -1.0057864E-04
  ir191    191   6.1062266E-16  9.0978314E-10  9.0978253E-10  2.1306397E-09  2.1311375E-09 -1.0145897E-04
  ir192    192   0.0000000E+00  0.0000000E+00  0.0000000E+00  0.0000000E+00  0.0000000E+00  0.0000000E+00
  ir193    193  -1.3322676E-15  1.5453447E-09  1.5453461E-09  3.6190744E-09  3.6199255E-09 -1.0213216E-04
  pt192    192   5.5511151E-17  3.8257595E-11  3.8257539E-11  8.9596247E-11  8.9617105E-11 -1.0109648E-04
  pt193    193   3.9401661E-27  3.9401661E-27  0.0000000E+00  9.2275556E-27  0.0000000E+00  0.0000000E+00
  pt194    194   2.8865799E-15  1.6296022E-09  1.6295993E-09  3.8163988E-09  3.8172860E-09 -1.0096702E-04
  pt195    195  -1.3322676E-15  1.6809827E-09  1.6809840E-09  3.9367278E-09  3.9376529E-09 -1.0202859E-04
  pt196    196  -3.3306691E-16  1.2606510E-09  1.2606514E-09  2.9523444E-09  2.9530367E-09 -1.0182145E-04
  au197    197   2.4424907E-15  7.5975587E-10  7.5975343E-10  1.7792878E-09  1.7796988E-09 -1.0031971E-04
  hg198    198   4.1633363E-17  1.7847487E-10  1.7847483E-10  4.1797396E-10  4.1807177E-10 -1.0161431E-04
  hg199    199   2.7755576E-17  3.0351138E-10  3.0351135E-10  7.1079953E-10  7.1096595E-10 -1.0166610E-04
  hg200    200   7.4940054E-16  4.1768941E-10  4.1768866E-10  9.7819541E-10  9.7842279E-10 -1.0094112E-04
  hg201    201  -1.9428903E-16  2.3950811E-10  2.3950830E-10  5.6090893E-10  5.6104082E-10 -1.0210626E-04
  hg202    202   1.7763568E-15  5.4531957E-10  5.4531779E-10  1.2770951E-09  1.2773901E-09 -1.0029382E-04
  tl203    203   4.5796700E-16  2.1571948E-10  2.1571903E-10  5.0519788E-10  5.0531512E-10 -1.0078577E-04
  tl204    204   1.8410969E-30  1.8410969E-30  0.0000000E+00  4.3117024E-30  0.0000000E+00  0.0000000E+00
  tl205    205   7.7715612E-16  5.1999849E-10  5.1999771E-10  1.2177951E-09  1.2180786E-09 -1.0109648E-04
  pb204    204   1.3877788E-16  2.7303612E-10  2.7303598E-10  6.3942890E-10  6.3957839E-10 -1.0151075E-04
  pb205    205   0.0000000E+00  0.0000000E+00  0.0000000E+00  0.0000000E+00  0.0000000E+00  0.0000000E+00
  pb206    206   1.9984014E-15  2.5654601E-09  2.5654581E-09  6.0081033E-09  6.0095058E-09 -1.0135539E-04
  pb207    207   0.0000000E+00  2.8527523E-09  2.8527523E-09  6.6809189E-09  6.6824839E-09 -1.0171789E-04
  pb208    208  -1.5987212E-14  8.2049700E-09  8.2049860E-09  1.9215387E-08  1.9219925E-08 -1.0257232E-04
  bi209    209  -7.7715612E-16  5.7062477E-10  5.7062555E-10  1.3363578E-09  1.3366728E-09 -1.0233929E-04
  bi210    210   0.0000000E+00  0.0000000E+00  0.0000000E+00  0.0000000E+00  0.0000000E+00  0.0000000E+00
  po210    210   0.0000000E+00  0.0000000E+00  0.0000000E+00  0.0000000E+00  0.0000000E+00  0.0000000E+00
