  species    A      yield       mass(i)_lost    mass(i)_0        <X(i)>          X0(i)   log10(<X(i)>/X0(i)) 
      n      1   0.0000000E+00  0.0000000E+00  0.0000000E+00  0.0000000E+00  0.0000000E+00  0.0000000E+00
      p      1  -8.3315015E-02  1.6175280E+00  1.7008430E+00  6.3757509E-01  6.7046791E-01 -2.1846661E-02
      d      2  -2.4192902E-04  1.1868010E-07  2.4204771E-04  4.6779700E-08  9.5414587E-05 -3.3095574E+00
    he3      3  -5.4514059E-04  9.9445228E-04  1.5395929E-03  3.9197961E-04  6.0690352E-04 -1.8985619E-01
    he4      4   6.6530406E-02  8.2810187E-01  7.6157147E-01  3.2640988E-01  3.0020952E-01  3.6338843E-02
    li7      7  -3.7466712E-08  5.2879088E-09  4.2754621E-08  2.0843156E-09  1.6853761E-08 -9.0773332E-01
    be7      7   3.1376876E-17  3.1376876E-17  0.0000000E+00  1.2367708E-17  0.0000000E+00  0.0000000E+00
     b8      8   8.4603864E-29  8.4603864E-29  0.0000000E+00  3.3347995E-29  0.0000000E+00  0.0000000E+00
    c12     12   9.7473171E-03  2.2468302E-02  1.2720985E-02  8.8562490E-03  5.0145797E-03  2.4701528E-01
    c13     13   2.2291006E-04  3.7705974E-04  1.5414967E-04  1.4862425E-04  6.0765407E-05  3.8843328E-01
    c14     14   6.2611349E-08  6.2611349E-08  0.0000000E+00  2.4679286E-08  0.0000000E+00  0.0000000E+00
    n13     13   0.0000000E+00  0.0000000E+00  0.0000000E+00  0.0000000E+00  0.0000000E+00  0.0000000E+00
    n14     14   5.6574880E-03  9.4183311E-03  3.7608431E-03  3.7123892E-03  1.4825147E-03  3.9865449E-01
    n15     15  -4.2824522E-06  4.7200838E-06  9.0025360E-06  1.8604982E-06  3.5487767E-06 -2.8044945E-01
    o14     14   0.0000000E+00  0.0000000E+00  0.0000000E+00  0.0000000E+00  0.0000000E+00  0.0000000E+00
    o15     15   0.0000000E+00  0.0000000E+00  0.0000000E+00  0.0000000E+00  0.0000000E+00  0.0000000E+00
    o16     16  -1.6025100E-03  2.9532969E-02  3.1135479E-02  1.1640903E-02  1.2273526E-02 -2.2982681E-02
    o17     17   6.2660954E-05  7.5228760E-05  1.2567808E-05  2.9652645E-05  4.9541977E-06  7.7709013E-01
    o18     18  -2.0657892E-05  4.9565089E-05  7.0222981E-05  1.9536890E-05  2.7681719E-05 -1.5133761E-01
    o19     19   0.0000000E+00  0.0000000E+00  0.0000000E+00  0.0000000E+00  0.0000000E+00  0.0000000E+00
    f17     17   0.0000000E+00  0.0000000E+00  0.0000000E+00  0.0000000E+00  0.0000000E+00  0.0000000E+00
    f18     18   0.0000000E+00  0.0000000E+00  0.0000000E+00  0.0000000E+00  0.0000000E+00  0.0000000E+00
    f19     19   4.3033688E-06  6.2936979E-06  1.9903289E-06  2.4807639E-06  7.8458260E-07  4.9994677E-01
    f20     20   0.0000000E+00  0.0000000E+00  0.0000000E+00  0.0000000E+00  0.0000000E+00  0.0000000E+00
   ne19     19   0.0000000E+00  0.0000000E+00  0.0000000E+00  0.0000000E+00  0.0000000E+00  0.0000000E+00
   ne20     20   3.4649856E-06  6.3047074E-03  6.3012424E-03  2.4851034E-03  2.4839337E-03  2.0445102E-04
   ne21     21   1.3110221E-06  1.7170749E-05  1.5859727E-05  6.7681312E-06  6.2518634E-06  3.4459274E-02
   ne22     22   3.3566286E-03  3.8662804E-03  5.0965173E-04  1.5239576E-03  2.0090342E-04  8.7998557E-01
   ne23     23   0.0000000E+00  0.0000000E+00  0.0000000E+00  0.0000000E+00  0.0000000E+00  0.0000000E+00
   na21     21   0.0000000E+00  0.0000000E+00  0.0000000E+00  0.0000000E+00  0.0000000E+00  0.0000000E+00
   na22     22   3.9684914E-20  3.9684914E-20  0.0000000E+00  1.5642457E-20  0.0000000E+00  0.0000000E+00
   na23     23   8.4311774E-05  2.5487813E-04  1.7056636E-04  1.0046439E-04  6.7236826E-05  1.7440492E-01
   na24     24   0.0000000E+00  0.0000000E+00  0.0000000E+00  0.0000000E+00  0.0000000E+00  0.0000000E+00
   mg23     23   0.0000000E+00  0.0000000E+00  0.0000000E+00  0.0000000E+00  0.0000000E+00  0.0000000E+00
   mg24     24   9.2666596E-07  3.0066967E-03  3.0057700E-03  1.1851387E-03  1.1848669E-03  9.9597790E-05
   mg25     25   2.0219508E-05  4.1659840E-04  3.9637889E-04  1.6420906E-04  1.5625154E-04  2.1572815E-02
   mg26     26   4.2787287E-06  4.5814738E-04  4.5386865E-04  1.8058628E-04  1.7891386E-04  4.0407879E-03
   mg27     27   0.0000000E+00  0.0000000E+00  0.0000000E+00  0.0000000E+00  0.0000000E+00  0.0000000E+00
   al25     25   0.0000000E+00  0.0000000E+00  0.0000000E+00  0.0000000E+00  0.0000000E+00  0.0000000E+00
   al-6     26   0.0000000E+00  0.0000000E+00  0.0000000E+00  0.0000000E+00  0.0000000E+00  0.0000000E+00
   al*6     26   0.0000000E+00  0.0000000E+00  0.0000000E+00  0.0000000E+00  0.0000000E+00  0.0000000E+00
   al27     27   1.5636033E-05  3.0505907E-04  2.8942304E-04  1.2024402E-04  1.1408982E-04  2.2816600E-02
   al28     28   0.0000000E+00  0.0000000E+00  0.0000000E+00  0.0000000E+00  0.0000000E+00  0.0000000E+00
   si27     27   0.0000000E+00  0.0000000E+00  0.0000000E+00  0.0000000E+00  0.0000000E+00  0.0000000E+00
   si28     28   1.7601997E-06  3.3298682E-03  3.3281080E-03  1.3125220E-03  1.3119316E-03  1.9539510E-04
   si29     29   5.3520489E-07  1.7556336E-04  1.7502815E-04  6.9201167E-05  6.8995651E-05  1.2917026E-03
   si30     30   1.3842291E-06  1.2074532E-04  1.1936110E-04  4.7593745E-05  4.7051835E-05  4.9733091E-03
    p31     31   1.5365258E-06  3.4766581E-05  3.3230055E-05  1.3703816E-05  1.3099202E-05  1.9596668E-02
    p32     32   1.7099901E-26  1.7099901E-26  0.0000000E+00  6.7402055E-27  0.0000000E+00  0.0000000E+00
    p33     33   1.5343558E-25  1.5343558E-25  0.0000000E+00  6.0479143E-26  0.0000000E+00  0.0000000E+00
    s32     32  -2.0277221E-06  1.5928451E-03  1.5948728E-03  6.2784593E-04  6.2869478E-04 -5.8676518E-04
    s33     33   4.4968419E-07  1.3617103E-05  1.3167419E-05  5.3674039E-06  5.1905627E-06  1.4549845E-02
    s34     34   2.7012720E-07  7.6848220E-05  7.6578093E-05  3.0290983E-05  3.0186888E-05  1.4950306E-03
    s35     35   2.1522401E-20  2.1522401E-20  0.0000000E+00  8.4834060E-21  0.0000000E+00  0.0000000E+00
    s36     36   6.3385869E-08  4.4139642E-07  3.7801055E-07  1.7398362E-07  1.4901079E-07  6.7290641E-02
   cl35     35  -6.7071596E-08  1.6292879E-05  1.6359951E-05  6.4221044E-06  6.4490509E-06 -1.8184339E-03
   cl36     36   0.0000000E+00  0.0000000E+00  0.0000000E+00  0.0000000E+00  0.0000000E+00  0.0000000E+00
   cl37     37   9.4078496E-07  6.4684909E-06  5.5277060E-06  2.5496615E-06  2.1790077E-06  6.8223767E-02
   ar36     36  -1.2403470E-06  3.0342175E-04  3.0466210E-04  1.1959864E-04  1.2009701E-04 -1.8059567E-03
   ar37     37   4.4376586E-20  4.4376586E-20  0.0000000E+00  1.7491757E-20  0.0000000E+00  0.0000000E+00
   ar38     38   5.1881216E-07  5.8988615E-05  5.8469803E-05  2.3251327E-05  2.3048646E-05  3.8023151E-03
   ar39     39   3.1281221E-11  3.1281221E-11  0.0000000E+00  1.2330004E-11  0.0000000E+00  0.0000000E+00
   ar40     40   8.0391523E-08  1.7882920E-07  9.8437674E-08  7.0488454E-08  3.8803879E-08  2.5924283E-01
    k39     39   1.0144140E-07  1.5962918E-05  1.5861477E-05  6.2920449E-06  6.2525537E-06  2.7344064E-03
    k40     40  -2.5677145E-09  0.0000000E+00  2.5677145E-09  0.0000000E+00  1.0121863E-09  0.0000000E+00
    k41     41   1.3646093E-07  1.3397464E-06  1.2032855E-06  5.2808292E-07  4.7433201E-07  4.6619684E-02
   ca40     40  -8.1473263E-07  2.7380793E-04  2.7462267E-04  1.0792587E-04  1.0825555E-04 -1.3246099E-03
   ca41     41   0.0000000E+00  0.0000000E+00  0.0000000E+00  0.0000000E+00  0.0000000E+00  0.0000000E+00
   ca42     42   7.0395117E-08  1.9948861E-06  1.9244910E-06  7.8631700E-07  7.5862943E-07  1.5567998E-02
   ca43     43   1.3087913E-08  4.2421186E-07  4.1112395E-07  1.6721005E-07  1.6206401E-07  1.3575767E-02
   ca44     44   5.7385932E-08  6.5577133E-06  6.5003273E-06  2.5848299E-06  2.5624124E-06  3.7829156E-03
   ca45     45   1.3389316E-20  1.3389316E-20  0.0000000E+00  5.2776175E-21  0.0000000E+00  0.0000000E+00
   ca46     46   4.1089457E-08  5.4120299E-08  1.3030843E-08  2.1332401E-08  5.1367248E-09  6.1835343E-01
   ca47     47   2.6375887E-33  2.6375887E-33  0.0000000E+00  1.0396487E-33  0.0000000E+00  0.0000000E+00
   ca48     48  -4.0705572E-10  6.3529188E-07  6.3569894E-07  2.5041069E-07  2.5059089E-07 -3.1240066E-04
   sc45     45   1.6099989E-08  1.9949401E-07  1.8339402E-07  7.8633825E-08  7.2293453E-08  3.6510419E-02
   sc46     46   5.8537049E-22  5.8537049E-22  0.0000000E+00  2.3073336E-22  0.0000000E+00  0.0000000E+00
   sc47     47   7.3686679E-33  7.3686679E-33  0.0000000E+00  2.9044809E-33  0.0000000E+00  0.0000000E+00
   sc48     48  -5.3047333E-32  1.1559210E-28  1.1564515E-28  4.5562516E-29  4.5587021E-29  0.0000000E+00
   ti46     46   7.8509856E-09  1.1282652E-06  1.1204143E-06  4.4472418E-07  4.4166444E-07  2.9983006E-03
   ti47     47  -3.8602366E-09  1.0285181E-06  1.0323783E-06  4.0540723E-07  4.0696094E-07 -1.6612213E-03
   ti48     48  -7.3462616E-08  1.0373592E-05  1.0447055E-05  4.0889208E-06  4.1182020E-06 -3.0989414E-03
   ti49     49   8.0495454E-08  8.6313253E-07  7.8263707E-07  3.4021781E-07  3.0851351E-07  4.2482868E-02
   ti50     50   9.8911471E-08  8.6356727E-07  7.6465579E-07  3.4038916E-07  3.0142536E-07  5.2795943E-02
    v51     51  -1.5951059E-08  1.6691935E-06  1.6851445E-06  6.5793989E-07  6.6427958E-07 -4.1646888E-03
   cr52     52  -2.0923471E-07  6.8871996E-05  6.9081230E-05  2.7147024E-05  2.7231643E-05 -1.3516144E-03
   cr53     53  -2.3986104E-08  7.9598722E-06  7.9838583E-06  3.1375137E-06  3.1472164E-06 -1.3409681E-03
   cr54     54   1.7006050E-07  2.1949115E-06  2.0248510E-06  8.6516025E-07  7.9819102E-07  3.4989733E-02
   mn55     55   1.3862264E-06  6.1715255E-05  6.0329028E-05  2.4326077E-05  2.3781547E-05  9.8319575E-03
   fe54     54  -3.7386781E-06  3.9377421E-04  3.9751289E-04  1.5521255E-04  1.5669856E-04 -4.1381884E-03
   fe55     55   1.1496022E-15  1.1496022E-15  0.0000000E+00  4.5313452E-16  0.0000000E+00  0.0000000E+00
   fe56     56  -2.4132896E-05  6.4469907E-03  6.4711235E-03  2.5411868E-03  2.5509002E-03 -1.6568816E-03
   fe57     57   1.0670556E-05  1.6279217E-04  1.5212162E-04  6.4167194E-05  5.9965951E-05  2.9408330E-02
   fe58     58   6.6977227E-06  2.7296201E-05  2.0598478E-05  1.0759244E-05  8.1198668E-06  1.2223286E-01
   fe59     59   8.7515765E-21  8.7515765E-21  0.0000000E+00  3.4495770E-21  0.0000000E+00  0.0000000E+00
   fe60     60   0.0000000E+00  0.0000000E+00  0.0000000E+00  0.0000000E+00  0.0000000E+00  0.0000000E+00
   co59     59   1.8706723E-06  1.7757382E-05  1.5886710E-05  6.9993625E-06  6.2625008E-06  4.8310701E-02
   co60     60   2.7029611E-14  2.7029611E-14  0.0000000E+00  1.0654163E-14  0.0000000E+00  0.0000000E+00
   ni58     58  -2.1660380E-06  2.2513868E-04  2.2730471E-04  8.8742090E-05  8.9602931E-05 -4.1925502E-03
   ni59     59   0.0000000E+00  0.0000000E+00  0.0000000E+00  0.0000000E+00  0.0000000E+00  0.0000000E+00
   ni60     60   6.9641828E-07  9.1270114E-05  9.0573696E-05  3.5975609E-05  3.5703917E-05  3.2922991E-03
   ni61     61   7.0038141E-07  4.7031731E-06  4.0027917E-06  1.8538326E-06  1.5778902E-06  6.9993742E-02
   ni62     62   7.7573623E-07  1.3747624E-05  1.2971887E-05  5.4188504E-06  5.1134848E-06  2.5190171E-02
   ni63     63   0.0000000E+00  0.0000000E+00  0.0000000E+00  0.0000000E+00  0.0000000E+00  0.0000000E+00
   ni64     64   2.2696256E-06  5.6796785E-06  3.4100528E-06  2.2387380E-06  1.3442341E-06  2.2152840E-01
   cu63     63   2.7356941E-07  3.0881774E-06  2.8146080E-06  1.2172557E-06  1.1095112E-06  4.0250093E-02
   cu64     64   0.0000000E+00  0.0000000E+00  0.0000000E+00  0.0000000E+00  0.0000000E+00  0.0000000E+00
   cu65     65   5.7872012E-07  1.8730857E-06  1.2943656E-06  7.3830734E-07  5.1023562E-07  1.6046640E-01
   zn64     64   1.0437043E-07  4.9266005E-06  4.8222300E-06  1.9419001E-06  1.9009107E-06  9.2651779E-03
   zn65     65   1.2371346E-18  1.2371346E-18  0.0000000E+00  4.8763683E-19  0.0000000E+00  0.0000000E+00
   zn66     66   6.1425294E-07  3.4673890E-06  2.8531360E-06  1.3667280E-06  1.1246990E-06  8.4645785E-02
   zn67     67   1.3863706E-07  5.6425597E-07  4.2561891E-07  2.2241072E-07  1.6777788E-07  1.2242103E-01
   zn68     68   8.0923905E-07  2.7847352E-06  1.9754962E-06  1.0976489E-06  7.7873545E-07  1.4907350E-01
   zn69     69   0.0000000E+00  0.0000000E+00  0.0000000E+00  0.0000000E+00  0.0000000E+00  0.0000000E+00
   zn70     70   3.5142591E-09  7.0759498E-08  6.7245239E-08  2.7891012E-08  2.6507900E-08  2.2088932E-02
   ga69     69   1.3804619E-07  3.1916312E-07  1.8111693E-07  1.2580337E-07  7.1395824E-08  2.4601945E-01
   ga70     70   0.0000000E+00  0.0000000E+00  0.0000000E+00  0.0000000E+00  0.0000000E+00  0.0000000E+00
   ga71     71   1.6281683E-07  2.8650015E-07  1.2368332E-07  1.1292872E-07  4.8755648E-08  3.6477947E-01
   ge70     70   2.5498014E-07  4.5642088E-07  2.0144073E-07  1.7990575E-07  7.9407421E-08  3.5518396E-01
   ge71     71   6.2436726E-26  6.2436726E-26  0.0000000E+00  2.4610456E-26  0.0000000E+00  0.0000000E+00
   ge72     72   2.9163965E-07  5.6545809E-07  2.7381844E-07  2.2288455E-07  1.0793853E-07  3.1490347E-01
   ge73     73   8.4235666E-08  1.6215907E-07  7.7923403E-08  6.3917646E-08  3.0717207E-08  3.1823906E-01
   ge74     74   3.8632041E-07  7.5705088E-07  3.7073048E-07  2.9840399E-07  1.4614099E-07  3.1003258E-01
   as75     75   3.5149402E-08  8.9502755E-08  5.4353354E-08  3.5278973E-08  2.1425953E-08  2.1657579E-01
   se76     76   1.3370602E-07  1.9029281E-07  5.6586789E-08  7.5007023E-08  2.2306367E-08  5.2667308E-01
   se77     77   5.3841838E-08  1.0052789E-07  4.6686054E-08  3.9624712E-08  1.8403522E-08  3.3306515E-01
   se78     78   3.6435134E-07  5.1168161E-07  1.4733027E-07  2.0168767E-07  5.8077209E-08  5.4067361E-01
   se79     79   0.0000000E+00  0.0000000E+00  0.0000000E+00  0.0000000E+00  0.0000000E+00  0.0000000E+00
   se80     80   4.7566220E-07  7.9103404E-07  3.1537184E-07  3.1179900E-07  1.2431876E-07  3.9933804E-01
   br79     79   7.9739948E-08  1.3017355E-07  5.0433595E-08  5.1310032E-08  1.9880794E-08  4.1176856E-01
   br80     80   0.0000000E+00  0.0000000E+00  0.0000000E+00  0.0000000E+00  0.0000000E+00  0.0000000E+00
   br81     81   6.4713106E-08  1.1501498E-07  5.0301871E-08  4.5335032E-08  1.9828869E-08  3.5913599E-01
   kr80     80   1.7420021E-09  1.3761023E-08  1.2019020E-08  5.4241318E-09  4.7378670E-09  5.8747377E-02
   kr81     81   0.0000000E+00  0.0000000E+00  0.0000000E+00  0.0000000E+00  0.0000000E+00  0.0000000E+00
   kr82     82   2.8620320E-07  3.4793391E-07  6.1730695E-08  1.3714384E-07  2.4334081E-08  7.5096136E-01
   kr83     83   9.4326175E-08  1.5622393E-07  6.1897758E-08  6.1578220E-08  2.4399938E-08  4.0203843E-01
   kr84     84   6.2309550E-07  9.3182439E-07  3.0872889E-07  3.6729381E-07  1.2170013E-07  4.7972259E-01
   kr-5     85   5.0287258E-15  5.0287258E-15  0.0000000E+00  1.9821545E-15  0.0000000E+00  0.0000000E+00
   kr*5     85   0.0000000E+00  0.0000000E+00  0.0000000E+00  0.0000000E+00  0.0000000E+00  0.0000000E+00
   kr86     86   9.0655064E-08  1.8624087E-07  9.5585804E-08  7.3409886E-08  3.7679676E-08  2.8964740E-01
   rb85     85   1.0286887E-07  1.5297481E-07  5.0105943E-08  6.0297523E-08  1.9751633E-08  4.8469648E-01
   rb86     86   4.0403547E-24  4.0403547E-24  0.0000000E+00  1.5925718E-24  0.0000000E+00  0.0000000E+00
   rb87     87   1.3336642E-08  3.4443161E-08  2.1106519E-08  1.3576335E-08  8.3201357E-09  2.1265213E-01
   sr86     86   2.3786441E-07  2.6124619E-07  2.3381768E-08  1.0297445E-07  9.2170325E-09  1.0481384E+00
   sr87     87   1.5783931E-07  1.7436992E-07  1.6530610E-08  6.8730756E-08  6.5163239E-09  1.0231484E+00
   sr88     88   1.8720742E-06  2.0725415E-06  2.0046734E-07  8.1692610E-07  7.9023707E-08  1.0144254E+00
   sr89     89   3.1261987E-23  3.1261987E-23  0.0000000E+00  1.2322423E-23  0.0000000E+00  0.0000000E+00
   sr90     90   1.5104400E-14  1.5104400E-14  0.0000000E+00  5.9536464E-15  0.0000000E+00  0.0000000E+00
    y89     89   4.4319978E-07  4.9101396E-07  4.7814176E-08  1.9354118E-07  1.8848224E-08  1.0115030E+00
    y90     90   3.8197852E-18  3.8197852E-18  0.0000000E+00  1.5056308E-18  0.0000000E+00  0.0000000E+00
    y91     91   5.5453247E-27  5.5453247E-27  0.0000000E+00  2.1857805E-27  0.0000000E+00  0.0000000E+00
   zr90     90   4.3744330E-07  4.9443321E-07  5.6989911E-08  1.9488893E-07  2.2465278E-08  9.3827534E-01
   zr91     91   1.0086487E-07  1.1343112E-07  1.2566252E-08  4.4710731E-08  4.9535838E-09  9.5549226E-01
   zr92     92   1.4627869E-07  1.6569733E-07  1.9418630E-08  6.5312314E-08  7.6547746E-09  9.3106270E-01
   zr93     93   0.0000000E+00  0.0000000E+00  0.0000000E+00  0.0000000E+00  0.0000000E+00  0.0000000E+00
   zr94     94   1.7879597E-07  1.9890281E-07  2.0106842E-08  7.8400795E-08  7.9260651E-09  9.9526286E-01
   zr95     95   1.0031904E-22  1.0031904E-22  0.0000000E+00  3.9542391E-23  0.0000000E+00  0.0000000E+00
   zr96     96   1.2109060E-09  4.5191726E-09  3.3082665E-09  1.7813058E-09  1.3041102E-09  1.3542420E-01
   nb93     93   4.9735476E-08  5.8418053E-08  8.6825764E-09  2.3026431E-08  3.4226495E-09  8.2786417E-01
   nb94     94   6.4748792E-12  6.4748792E-12  0.0000000E+00  2.5521794E-12  0.0000000E+00  0.0000000E+00
   nb95     95   1.1411160E-22  1.1411160E-22  0.0000000E+00  4.4978949E-23  0.0000000E+00  0.0000000E+00
   mo94     94   1.9438873E-10  2.9156766E-09  2.7212879E-09  1.1492616E-09  1.0727247E-09  2.9930593E-02
   mo95     95   2.0548761E-08  2.5308621E-08  4.7598601E-09  9.9758068E-09  1.8763244E-09  7.2564012E-01
   mo96     96   3.8840852E-08  4.3904024E-08  5.0631708E-09  1.7305489E-08  1.9958890E-09  9.3804747E-01
   mo97     97   1.2671730E-08  1.5617271E-08  2.9455403E-09  6.1558025E-09  1.1611244E-09  7.2440594E-01
   mo98     98   4.5181658E-08  5.2743328E-08  7.5616686E-09  2.0789646E-08  2.9807905E-09  8.4351563E-01
   tc99     99   0.0000000E+00  0.0000000E+00  0.0000000E+00  0.0000000E+00  0.0000000E+00  0.0000000E+00
   ru99     99   5.7323399E-09  8.3726928E-09  2.6403530E-09  3.3002336E-09  1.0408203E-09  5.0116891E-01
  ru100    100   2.2151394E-08  2.4784908E-08  2.6335143E-09  9.7693764E-09  1.0381246E-09  9.7361737E-01
  ru101    101   4.6678759E-09  8.2692102E-09  3.6013341E-09  3.2594445E-09  1.4196366E-09  3.6096638E-01
  ru102    102   2.9257704E-08  3.5983781E-08  6.7260770E-09  1.4183596E-08  2.6514024E-09  7.2831070E-01
  rh103    103   4.7636504E-09  9.0591268E-09  4.2954764E-09  3.5708030E-09  1.6932657E-09  3.2404077E-01
  pd104    104   1.6006677E-08  1.7886359E-08  1.8796824E-09  7.0502009E-09  7.4096596E-10  9.7840321E-01
  pd105    105   3.9263361E-09  7.7302715E-09  3.8039354E-09  3.0470129E-09  1.4995014E-09  3.0792740E-01
  pd106    106   1.8230629E-08  2.2930800E-08  4.7001700E-09  9.0385495E-09  1.8527950E-09  6.8827134E-01
  pd107    107   0.0000000E+00  0.0000000E+00  0.0000000E+00  0.0000000E+00  0.0000000E+00  0.0000000E+00
  pd108    108   2.2469361E-08  2.7105777E-08  4.6364166E-09  1.0684185E-08  1.8276636E-09  7.6684517E-01
  ag107    107   3.5017749E-09  6.6947519E-09  3.1929770E-09  2.6388458E-09  1.2586634E-09  3.2150444E-01
  ag108    108   0.0000000E+00  0.0000000E+00  0.0000000E+00  0.0000000E+00  0.0000000E+00  0.0000000E+00
  ag109    109   5.5168634E-09  8.5387510E-09  3.0218876E-09  3.3656884E-09  1.1912203E-09  4.5108181E-01
  cd108    108   2.6069064E-11  2.0512121E-10  1.7905215E-10  8.0851881E-11  7.0581894E-11  5.8996834E-02
  cd109    109   6.5802601E-22  6.5802601E-22  0.0000000E+00  2.5937171E-22  0.0000000E+00  0.0000000E+00
  cd110    110   1.9039618E-08  2.1598934E-08  2.5593170E-09  8.5135730E-09  1.0088761E-09  9.2627400E-01
  cd111    111   6.1693277E-09  8.8160164E-09  2.6466886E-09  3.4749770E-09  1.0433179E-09  5.2253532E-01
  cd112    112   2.2934364E-08  2.7968818E-08  5.0344542E-09  1.1024367E-08  1.9845690E-09  7.4468750E-01
  cd113    113   6.6240662E-09  9.1963557E-09  2.5722895E-09  3.6248939E-09  1.0139899E-09  5.5326170E-01
  cd114    114   3.1531851E-08  3.7632923E-08  6.1010708E-09  1.4833631E-08  2.4050264E-09  7.9012764E-01
  in115    115   5.9553127E-09  8.2558245E-09  2.3005118E-09  3.2541683E-09  9.0685587E-10  5.5490172E-01
  sn116    116   4.2049042E-08  4.9246584E-08  7.1975412E-09  1.9411345E-08  2.8372522E-09  8.3515769E-01
  sn117    117   1.2188784E-08  1.6023220E-08  3.8344359E-09  6.3158141E-09  1.5115248E-09  6.2101406E-01
  sn118    118   5.2878335E-08  6.4571026E-08  1.1692691E-08  2.5451726E-08  4.6092290E-09  7.4208897E-01
  sn119    119   1.5278035E-08  1.9640215E-08  4.3621800E-09  7.7415114E-09  1.7195600E-09  6.5340841E-01
  sn120    120   7.5857656E-08  9.2541555E-08  1.6683899E-08  3.6476766E-08  6.5767498E-09  7.4400496E-01
  sb121    121   5.4311924E-09  8.0041165E-09  2.5729243E-09  3.1549534E-09  1.0142401E-09  4.9285215E-01
  te122    122   9.7206323E-09  1.1430920E-08  1.7102880E-09  4.5056843E-09  6.7419115E-10  8.2497770E-01
  te123    123   3.5716921E-09  4.1735118E-09  6.0181965E-10  1.6450579E-09  2.3723576E-10  8.4100103E-01
  te124    124   1.8340410E-08  2.1571656E-08  3.2312464E-09  8.5028207E-09  1.2737490E-09  8.2447916E-01
  te125    125   6.0415379E-09  1.0900047E-08  4.8585092E-09  4.2964317E-09  1.9152118E-09  3.5089108E-01
  te126    126   3.2380786E-08  4.5431076E-08  1.3050289E-08  1.7907402E-08  5.1443902E-09  5.4169869E-01
   i127    127   3.8153267E-09  2.0182535E-08  1.6367208E-08  7.9552764E-09  6.4519119E-09  9.0966828E-02
   i128    128   0.0000000E+00  0.0000000E+00  0.0000000E+00  0.0000000E+00  0.0000000E+00  0.0000000E+00
   i129    129   4.2479258E-12  4.2479258E-12  0.0000000E+00  1.6743894E-12  0.0000000E+00  0.0000000E+00
  xe128    128   1.0323973E-08  1.2091729E-08  1.7677555E-09  4.7661524E-09  6.9684469E-10  8.3503193E-01
  xe129    129   3.4496050E-09  2.5641981E-08  2.2192376E-08  1.0107206E-08  8.7481773E-09  6.2713519E-02
  xe130    130   2.0924096E-08  2.4514982E-08  3.5908858E-09  9.6629806E-09  1.4155179E-09  8.3419573E-01
  xe131    131   7.3859141E-09  2.5323152E-08  1.7937237E-08  9.9815338E-09  7.0708124E-09  1.4972797E-01
  xe132    132   3.7151146E-08  5.9242382E-08  2.2091237E-08  2.3351353E-08  8.7083096E-09  4.2837816E-01
  xe133    133   9.5602053E-31  9.5602053E-31  0.0000000E+00  3.7683112E-31  0.0000000E+00  0.0000000E+00
  xe134    134   2.1727509E-10  8.4976595E-09  8.2803844E-09  3.3494914E-09  3.2641059E-09  1.1214629E-02
  cs133    133   4.7882800E-09  1.0596191E-08  5.8079115E-09  4.1766621E-09  2.2894637E-09  2.6109558E-01
  cs134    134   1.5714633E-19  1.5714633E-19  0.0000000E+00  6.1941792E-20  0.0000000E+00  0.0000000E+00
  cs135    135   0.0000000E+00  0.0000000E+00  0.0000000E+00  0.0000000E+00  0.0000000E+00  0.0000000E+00
  cs136    136   9.6901955E-29  9.6901955E-29  0.0000000E+00  3.8195491E-29  0.0000000E+00  0.0000000E+00
  cs137    137   0.0000000E+00  0.0000000E+00  0.0000000E+00  0.0000000E+00  0.0000000E+00  0.0000000E+00
  ba134    134   1.3532518E-08  1.5313063E-08  1.7805445E-09  6.0358940E-09  7.0188605E-10  9.3447500E-01
  ba135    135   6.0211738E-09  1.0913661E-08  4.8924873E-09  4.3017980E-09  1.9286059E-09  3.4840649E-01
  ba136    136   3.4078390E-08  3.9950674E-08  5.8722844E-09  1.5747212E-08  2.3148394E-09  8.3268279E-01
  ba137    137   2.5661944E-08  3.4121449E-08  8.4595060E-09  1.3449527E-08  3.3347154E-09  6.0564822E-01
  ba138    138   2.0973636E-07  2.6413099E-07  5.4394629E-08  1.0411155E-07  2.1442224E-08  6.8622905E-01
  la139    139   2.2627308E-08  3.0088209E-08  7.4609021E-09  1.1859759E-08  2.9410685E-09  6.0557073E-01
  ce140    140   5.4333192E-08  7.1433263E-08  1.7100072E-08  2.8156588E-08  6.7408044E-09  6.2086833E-01
  ce141    141   6.8600616E-25  6.8600616E-25  0.0000000E+00  2.7040054E-25  0.0000000E+00  0.0000000E+00
  ce142    142   1.4917201E-10  2.3285087E-09  2.1793367E-09  9.1781976E-10  8.5908897E-10  2.8719256E-02
  pr141    141   4.5303414E-09  7.4773929E-09  2.9470515E-09  2.9473366E-09  1.1617202E-09  4.0432823E-01
  nd142    142   1.3624883E-08  1.7556246E-08  3.9313637E-09  6.9200814E-09  1.5497336E-09  6.4985418E-01
  nd143    143   1.8031213E-09  3.5631305E-09  1.7600091E-09  1.4044661E-09  6.9379108E-10  3.0628258E-01
  nd144    144   5.6001968E-09  9.0981125E-09  3.4979160E-09  3.5861698E-09  1.3788695E-09  4.1510767E-01
  nd145    145   1.0121552E-09  2.3128850E-09  1.3007297E-09  9.1166141E-10  5.1274435E-10  2.4993271E-01
  nd146    146   5.2391522E-09  7.7993629E-09  2.5602107E-09  3.0742464E-09  1.0092285E-09  4.8374918E-01
  nd147    147   6.0374625E-28  6.0374625E-28  0.0000000E+00  2.3797645E-28  0.0000000E+00  0.0000000E+00
  nd148    148   1.6486351E-10  1.0308718E-09  8.6600832E-10  4.0633499E-10  3.4137826E-10  7.5648382E-02
  pm147    147   1.7899203E-20  1.7899203E-20  0.0000000E+00  7.0552634E-21  0.0000000E+00  0.0000000E+00
  pm148    148   9.2495743E-36  9.2495743E-36  0.0000000E+00  3.6458710E-36  0.0000000E+00  0.0000000E+00
  sm147    147   5.8460470E-10  1.2816863E-09  6.9708161E-10  5.0519761E-10  2.7478778E-10  2.6446387E-01
  sm148    148   1.6297401E-09  2.1559952E-09  5.2625504E-10  8.4982071E-10  2.0744838E-10  6.1241722E-01
  sm149    149   2.1702956E-10  8.6844687E-10  6.5141731E-10  3.4231254E-10  2.5678701E-10  1.2484975E-01
  sm150    150   1.1008272E-09  1.4510282E-09  3.5020101E-10  5.7194649E-10  1.3804835E-10  6.1732417E-01
  sm151    151   1.3192578E-14  1.3192578E-14  0.0000000E+00  5.2000704E-15  0.0000000E+00  0.0000000E+00
  sm152    152   8.7525509E-10  2.1615290E-09  1.2862739E-09  8.5200197E-10  5.0704585E-10  2.2539337E-01
  eu151    151   1.3858165E-10  9.8710828E-10  8.4852664E-10  3.8908488E-10  3.3448702E-10  6.5665089E-02
  eu152    152   2.7106545E-18  2.7106545E-18  0.0000000E+00  1.0684488E-18  0.0000000E+00  0.0000000E+00
  eu153    153   1.4545942E-10  1.0839928E-09  9.3853336E-10  4.2727347E-10  3.6996742E-10  6.2542439E-02
  eu154    154   1.0609538E-18  1.0609538E-18  0.0000000E+00  4.1819230E-19  0.0000000E+00  0.0000000E+00
  eu155    155   2.5071031E-21  2.5071031E-21  0.0000000E+00  9.8821567E-22  0.0000000E+00  0.0000000E+00
  gd152    152   2.1935899E-12  1.4582875E-11  1.2389285E-11  5.7480787E-12  4.8838242E-12  7.0762664E-02
  gd153    153   2.0188834E-22  2.0188834E-22  0.0000000E+00  7.9577587E-23  0.0000000E+00  0.0000000E+00
  gd154    154   4.0141396E-10  5.3823124E-10  1.3681728E-10  2.1215264E-10  5.3933018E-11  5.9479374E-01
  gd155    155   1.3479151E-10  1.0696966E-09  9.3490504E-10  4.2163839E-10  3.6853717E-10  5.8458854E-02
  gd156    156   6.4513994E-10  1.9465316E-09  1.3013917E-09  7.6725726E-10  5.1300519E-10  1.7481926E-01
  gd157    157   3.0161762E-10  1.3029491E-09  1.0013315E-09  5.1357868E-10  3.9472228E-10  1.1431534E-01
  gd158    158   1.3234034E-09  2.9228873E-09  1.5994839E-09  1.1521037E-09  6.3051242E-10  2.6179796E-01
  gd159    159   0.0000000E+00  0.0000000E+00  0.0000000E+00  0.0000000E+00  0.0000000E+00  0.0000000E+00
  gd160    160  -1.0491830E-11  1.4149263E-09  1.4254181E-09  5.5771632E-10  5.6189614E-10 -3.2426964E-03
  tb159    159   2.6165836E-10  1.4682784E-09  1.2066200E-09  5.7874594E-10  4.7564652E-10  8.5203618E-02
  tb160    160   8.2669710E-22  8.2669710E-22  0.0000000E+00  3.2585618E-22  0.0000000E+00  0.0000000E+00
  tb161    161   1.3099426E-29  1.3099426E-29  0.0000000E+00  5.1633531E-30  0.0000000E+00  0.0000000E+00
  dy160    160   4.9683457E-10  6.7941680E-10  1.8258220E-10  2.6780325E-10  7.1973427E-11  5.7064366E-01
  dy161    161   1.8893076E-10  1.6790056E-09  1.4900748E-09  6.6180750E-10  5.8738370E-10  5.1809784E-02
  dy162    162   9.7927599E-10  3.0013441E-09  2.0220681E-09  1.1830288E-09  7.9709406E-10  1.7148574E-01
  dy163    163   3.9101988E-10  2.3793498E-09  1.9883299E-09  9.3785968E-10  7.8379458E-10  7.7935621E-02
  dy164    164   2.0612798E-09  4.3321284E-09  2.2708486E-09  1.7075792E-09  8.9516272E-10  2.8047886E-01
  ho165    165   3.4966507E-10  2.1183615E-09  1.7686964E-09  8.3498680E-10  6.9721562E-10  7.8312524E-02
  er166    166   8.4392315E-10  2.5241407E-09  1.6802175E-09  9.9493136E-10  6.6233746E-10  1.7671381E-01
  er167    167   3.2832748E-10  1.4821265E-09  1.1537991E-09  5.8420441E-10  4.5482462E-10  1.0872085E-01
  er168    168   1.3404210E-09  2.7096776E-09  1.3692566E-09  1.0680637E-09  5.3975746E-10  2.9639852E-01
  er169    169   2.1391444E-28  2.1391444E-28  0.0000000E+00  8.4317869E-29  0.0000000E+00  0.0000000E+00
  er170    170   1.4827806E-10  9.1403313E-10  7.6575507E-10  3.6028111E-10  3.0185868E-10  7.6837838E-02
  tm169    169   3.1802511E-10  1.1272400E-09  8.0921486E-10  4.4432005E-10  3.1899042E-10  1.4391828E-01
  tm170    170   4.6615929E-22  4.6615929E-22  0.0000000E+00  1.8374431E-22  0.0000000E+00  0.0000000E+00
  tm171    171   4.0397491E-20  4.0397491E-20  0.0000000E+00  1.5923332E-20  0.0000000E+00  0.0000000E+00
  yb170    170   4.5933335E-10  6.1238509E-10  1.5305174E-10  2.4138158E-10  6.0332607E-11  6.0215205E-01
  yb171    171   5.0616672E-10  1.2340584E-09  7.2789169E-10  4.8642429E-10  2.8693303E-10  2.2923470E-01
  yb172    172   1.3875229E-09  2.5146070E-09  1.1270841E-09  9.9117348E-10  4.4429369E-10  3.4847951E-01
  yb173    173   6.2018257E-10  1.4616378E-09  8.4145524E-10  5.7612842E-10  3.3169947E-10  2.3977451E-01
  yb174    174   2.9829574E-09  4.6667172E-09  1.6837598E-09  1.8394629E-09  6.6373379E-10  4.4269711E-01
  lu175    175   3.7754672E-10  1.1374808E-09  7.5993406E-10  4.4835663E-10  2.9956407E-10  1.7513388E-01
  lu176    176   2.9868927E-10  3.2087144E-10  2.2182161E-11  1.2647672E-10  8.7441504E-12  1.1602930E+00
  lu177    177   8.7231696E-31  8.7231696E-31  0.0000000E+00  3.4383800E-31  0.0000000E+00  0.0000000E+00
  hf176    176  -4.6232185E-12  1.6605896E-10  1.7068218E-10  6.5454850E-11  6.7282471E-11 -1.1960093E-02
  hf177    177   3.0490255E-10  9.1836888E-10  6.1346633E-10  3.6199010E-10  2.4182686E-10  1.7519216E-01
  hf178    178   1.4548298E-09  2.3599620E-09  9.0513225E-10  9.3021763E-10  3.5680081E-10  4.1615874E-01
  hf179    179   5.0738380E-10  9.6183350E-10  4.5444973E-10  3.7912240E-10  1.7914291E-10  3.2557985E-01
  hf180    180   2.8835361E-09  4.0604382E-09  1.1769021E-09  1.6004881E-09  4.6393178E-10  5.3779835E-01
  hf181    181   1.1179764E-23  1.1179764E-23  0.0000000E+00  4.4066871E-24  0.0000000E+00  0.0000000E+00
  hf182    182   2.3150105E-10  2.3150105E-10  0.0000000E+00  9.1249924E-11  0.0000000E+00  0.0000000E+00
  ta181    181   6.6612793E-10  1.1647572E-09  4.9862925E-10  4.5910808E-10  1.9655837E-10  3.6842340E-01
  ta182    182   2.1239905E-18  2.1239905E-18  0.0000000E+00  8.3720558E-19  0.0000000E+00  0.0000000E+00
  ta183    183   3.5844694E-34  3.5844694E-34  0.0000000E+00  1.4128772E-34  0.0000000E+00  0.0000000E+00
   w182    182   1.3546485E-09  2.1371718E-09  7.8252327E-10  8.4240120E-10  3.0846867E-10  4.3630794E-01
   w183    183   7.7237750E-10  1.1972489E-09  4.2487133E-10  4.7191523E-10  1.6748318E-10  4.4989282E-01
   w184    184   1.8986104E-09  2.8132801E-09  9.1466962E-10  1.1089003E-09  3.6056041E-10  4.8791444E-01
   w185    185   1.6136287E-22  1.6136287E-22  0.0000000E+00  6.3603816E-23  0.0000000E+00  0.0000000E+00
   w186    186   4.8133619E-10  1.3392769E-09  8.5794072E-10  5.2789789E-10  3.3819803E-10  1.9337885E-01
  re185    185   3.5651423E-10  7.9257573E-10  4.3606149E-10  3.1240668E-10  1.7189432E-10  2.5945881E-01
  re186    186   4.3977426E-33  4.3977426E-33  0.0000000E+00  1.7334422E-33  0.0000000E+00  0.0000000E+00
  re187    187   7.7188644E-11  8.7238017E-10  7.9519152E-10  3.4386291E-10  3.1346245E-10  4.0199835E-02
  os186    186   8.0627727E-10  1.0479692E-09  2.4169186E-10  4.1307419E-10  9.5274309E-11  6.3705224E-01
  os187    187   2.4361357E-10  4.3687870E-10  1.9326511E-10  1.7220288E-10  7.6184607E-11  3.5417318E-01
  os188    188   1.4221797E-09  3.4610455E-09  2.0388657E-09  1.3642276E-09  8.0371565E-10  2.2978441E-01
  os189    189   2.3561131E-10  2.7346936E-09  2.4990823E-09  1.0779242E-09  9.8513175E-10  3.9093927E-02
  os190    190   1.4864359E-09  5.5719518E-09  4.0855159E-09  2.1962758E-09  1.6104998E-09  1.3472618E-01
  os191    191   6.9723336E-26  6.9723336E-26  0.0000000E+00  2.7482592E-26  0.0000000E+00  0.0000000E+00
  os192    192   9.4625641E-11  6.5064478E-09  6.4118222E-09  2.5646227E-09  2.5275240E-09  6.3281939E-03
  ir191    191   1.5344082E-10  5.5597100E-09  5.4062692E-09  2.1914506E-09  2.1311375E-09  1.2120209E-02
  ir192    192   4.4318298E-21  4.4318298E-21  0.0000000E+00  1.7468782E-21  0.0000000E+00  0.0000000E+00
  ir193    193   1.0150103E-10  9.2845278E-09  9.1830268E-09  3.6596484E-09  3.6199255E-09  4.7397520E-03
  pt192    192   4.6417256E-10  6.9151324E-10  2.2734067E-10  2.7257124E-10  8.9617105E-11  4.8308915E-01
  pt193    193   1.8270460E-15  1.8270460E-15  0.0000000E+00  7.2016006E-16  0.0000000E+00  0.0000000E+00
  pt194    194   1.1035874E-09  1.0787279E-08  9.6836912E-09  4.2519823E-09  3.8172860E-09  4.6836749E-02
  pt195    195   2.9209168E-10  1.0281129E-08  9.9890372E-09  4.0524748E-09  3.9376529E-09  1.2482909E-02
  pt196    196   2.3563071E-09  9.8475708E-09  7.4912636E-09  3.8815808E-09  2.9530367E-09  1.1873979E-01
  au197    197   6.9824102E-10  5.2129807E-09  4.5147397E-09  2.0547815E-09  1.7796988E-09  6.2419143E-02
  hg198    198   2.5555043E-09  3.6160688E-09  1.0605644E-09  1.4253326E-09  4.1807177E-10  5.3266537E-01
  hg199    199   1.0278592E-09  2.8314378E-09  1.8035785E-09  1.1160575E-09  7.1096595E-10  1.9583778E-01
  hg200    200   3.3354806E-09  5.8175433E-09  2.4820628E-09  2.2930797E-09  9.7842279E-10  3.6989260E-01
  hg201    201   1.3164512E-09  2.7396996E-09  1.4232484E-09  1.0798974E-09  5.6104082E-10  2.8438804E-01
  hg202    202   5.3427343E-09  8.5832177E-09  3.2404832E-09  3.3832155E-09  1.2773901E-09  4.2300612E-01
  tl203    203   2.3808182E-09  3.6627017E-09  1.2818834E-09  1.4437137E-09  5.0531512E-10  4.5591879E-01
  tl204    204   5.5886713E-21  5.5886713E-21  0.0000000E+00  2.2028662E-21  0.0000000E+00  0.0000000E+00
  tl205    205   2.5858409E-09  5.6758624E-09  3.0900216E-09  2.2372340E-09  1.2180786E-09  2.6403609E-01
  pb204    204   3.0473233E-09  4.6698054E-09  1.6224823E-09  1.8406802E-09  6.3957839E-10  4.5908451E-01
  pb205    205   0.0000000E+00  0.0000000E+00  0.0000000E+00  0.0000000E+00  0.0000000E+00  0.0000000E+00
  pb206    206   1.7599502E-08  3.2844415E-08  1.5244913E-08  1.2946163E-08  6.0095058E-09  3.3330232E-01
  pb207    207   1.9227414E-08  3.6179539E-08  1.6952125E-08  1.4260757E-08  6.6824839E-09  3.2920468E-01
  pb208    208   2.6540977E-08  7.5298082E-08  4.8757105E-08  2.9679970E-08  1.9219925E-08  1.8871178E-01
  bi209    209   1.7050761E-10  3.5613790E-09  3.3908714E-09  1.4037758E-09  1.3366728E-09  2.1272650E-02
  bi210    210   0.0000000E+00  0.0000000E+00  0.0000000E+00  0.0000000E+00  0.0000000E+00  0.0000000E+00
  po210    210   0.0000000E+00  0.0000000E+00  0.0000000E+00  0.0000000E+00  0.0000000E+00  0.0000000E+00
